Guía de Econometría para R (Uninorte) - 3: Distribución de datos
…
Siempre es importante la opción de p.e margin=1 ya que nos muestra resultados por filas y la parte de margin=2 u opciones nos mostrará la parte para hacer análisis por columnas dentro de una categoría. Con esto podemos mirar que aquellos que tienen hijos posiblemente tienen casos mas complejos en el hogar y que puede llevar a separación.

Subconjuntos con filtros

Muchas veces se debe filtrar la base de datos original y convertirla en una base mas pequeña. Para esto, se requiere una condición o característica esencial de interés del investigador.

# Base
datos_asuntos

# A tibble: 601 × 19
      id  male   age yrsmarr  kids relig  educ occup ratemarr naffairs affair
   <dbl> <dbl> <dbl>   <dbl> <dbl> <dbl> <dbl> <dbl>    <dbl>    <dbl>  <dbl>
 1     4     1    37   10        0     3    18     7        4        0      0
 2     5     0    27    4        0     4    14     6        4        0      0
 3     6     1    27    1.5      0     3    18     4        4        3      1
 4    11     0    32   15        1     1    12     1        4        0      0
 5    12     0    27    4        1     3    17     1        5        3      1
 6    16     1    57   15        1     5    18     6        5        0      0
 7    23     1    22    0.75     0     2    17     6        3        0      0
 8    29     0    32    1.5      0     2    17     5        5        0      0
 9    43     1    37   15        1     5    18     6        2        7      1
10    44     0    22    0.75     0     2    12     1        3        0      0
# ℹ 591 more rows
# ℹ 8 more variables: vryhap <dbl>, hapavg <dbl>, avgmarr <dbl>, unhap <dbl>,
#   vryrel <dbl>, smerel <dbl>, slghtrel <dbl>, notrel <dbl>

# Se hace uso del comando "Subset" para seleccionar un subconjunto de una base 
# para aquellas observaciones cuya educación en años es mayor o igual a 10.
subset(datos_asuntos, educ>=10)

# A tibble: 594 × 19
      id  male   age yrsmarr  kids relig  educ occup ratemarr naffairs affair
   <dbl> <dbl> <dbl>   <dbl> <dbl> <dbl> <dbl> <dbl>    <dbl>    <dbl>  <dbl>
 1     4     1    37   10        0     3    18     7        4        0      0
 2     5     0    27    4        0     4    14     6        4        0      0
 3     6     1    27    1.5      0     3    18     4        4        3      1
 4    11     0    32   15        1     1    12     1        4        0      0
 5    12     0    27    4        1     3    17     1        5        3      1
 6    16     1    57   15        1     5    18     6        5        0      0
 7    23     1    22    0.75     0     2    17     6        3        0      0
 8    29     0    32    1.5      0     2    17     5        5        0      0
 9    43     1    37   15        1     5    18     6        2        7      1
10    44     0    22    0.75     0     2    12     1        3        0      0
# ℹ 584 more rows
# ℹ 8 more variables: vryhap <dbl>, hapavg <dbl>, avgmarr <dbl>, unhap <dbl>,
#   vryrel <dbl>, smerel <dbl>, slghtrel <dbl>, notrel <dbl>

#Se puede adicionar a una nueva base con un nombre nuevo 
mibase<- subset(datos_asuntos, educ>=10)
#Mirar en formato tradicional   
View(mibase)
#Un subset con variable cualitativa (tipo filtro) cuando la pareja 
#'si' tiene hijos
subset(datos_asuntos, kids==1)

# A tibble: 430 × 19
      id  male   age yrsmarr  kids relig  educ occup ratemarr naffairs affair
   <dbl> <dbl> <dbl>   <dbl> <dbl> <dbl> <dbl> <dbl>    <dbl>    <dbl>  <dbl>
 1    11     0    32      15     1     1    12     1        4        0      0
 2    12     0    27       4     1     3    17     1        5        3      1
 3    16     1    57      15     1     5    18     6        5        0      0
 4    43     1    37      15     1     5    18     6        2        7      1
 5    45     1    57      15     1     2    14     4        4        0      0
 6    47     0    32      15     1     4    16     1        2        0      0
 7    50     1    37      15     1     2    20     7        2        0      0
 8    53     0    32      10     1     3    17     5        2       12      1
 9    55     1    27       4     1     4    18     6        4        0      0
10    64     1    47      15     1     5    17     6        4        0      0
# ℹ 420 more rows
# ℹ 8 more variables: vryhap <dbl>, hapavg <dbl>, avgmarr <dbl>, unhap <dbl>,
#   vryrel <dbl>, smerel <dbl>, slghtrel <dbl>, notrel <dbl>
…
